[
  {
    "status": "Initialized", 
    "initial_step_size": 0.1, 
    "algorithm": "EM", 
    "num_steps": 100, 
    "output_interval": 1, 
    "convergence": -12.0, 
    "minimization_type": "SD"
  }, 
  {
    "status": "Initialized", 
    "initial_step_size": 0.1, 
    "algorithm": "EM", 
    "num_steps": 1000, 
    "output_interval": 1, 
    "convergence": -12.0, 
    "minimization_type": "SD"
  }, 
  {
    "status": "Initialized", 
    "thermostat_interval": 50, 
    "remove_rotation_interval": 100, 
    "barostat": "Off", 
    "thermostat": "Rescale", 
    "algorithm": "MD", 
    "barostat_relaxation_time": 1.5, 
    "initial_T": 1.0, 
    "num_steps": 1000, 
    "output_interval": 1, 
    "initialize_velocities": "xy", 
    "pressure": 1.0, 
    "friction": 0.1, 
    "final_T": 10.0, 
    "remove_translation_interval": 100, 
    "time_step": 0.5, 
    "thermostat_relaxation_time": 0.2
  }
]